(0 " Created by : Fluent_V6 Interface Vers. 18.0.0")
(2 2)
(0 "Node Section")
(10 (0 1 14d 0 2))
(10 (7 1 14d 1 2)
(
0.50000000339999995 0.80000001190000003
0.60000001159999994 0.80000001190000003
0.50000000339999995 0.86666667460000002
0.60000001159999994 0.86666667460000002
0.50000000339999995 0.93333333730000001
0.60000001159999994 0.93333333730000012
0.50000000339999995 1
0.60000001159999994 1
0.70000001980000004 0.80000001190000003
0.70000001980000004 0.86666667460000002
0.70000001980000004 0.93333333730000023
0.70000001980000004 1
0.80000002800000003 0.80000001190000003
0.80000002800000003 0.86666667460000002
0.80000002800000003 0.93333333730000001
0.80000002800000003 1
0 0.80000001190000003
0.10000000067999999 0.80000001190000003
0 0.86666667460000002
0.10000000068000001 0.86666667460000002
0.20000000135999998 0.80000001190000003
0.20000000136000001 0.86666667460000002
0.30000000203999994 0.80000001190000003
0.30000000203999999 0.86666667460000002
0.40000000271999997 0.80000001190000003
0.40000000272000003 0.86666667460000002
0 0.93333333730000001
0.10000000068000001 0.93333333730000023
0.20000000136000001 0.93333333730000023
0.30000000203999994 0.93333333730000023
0.40000000272000003 0.93333333730000001
0 1
0.10000000067999999 1
0.20000000135999998 1
0.30000000203999994 1
0.40000000271999997 1
0.90000001830000009 0.80000001190000003
0.90000001829999998 0.86666667460000002
1.0000000086000003 0.80000001190000003
1.0000000086000005 0.86666667460000002
1.0999999989 0.80000001189999992
1.0999999989 0.8666666745999998
1.1999999892000002 0.80000001190000014
1.1999999892000004 0.86666667460000013
1.2999999795000001 0.80000001189999992
1.2999999795000003 0.86666667460000002
1.3999999698000001 0.80000001189999992
1.3999999698000001 0.86666667460000002
1.4999999601 0.80000001189999992
1.4999999600999998 0.86666667460000002
1.5999999504000002 0.80000001190000003
1.5999999504 0.86666667460000002
1.6999999407000002 0.80000001190000003
1.6999999407000006 0.86666667460000002
1.7999999310000001 0.80000001190000003
1.7999999309999999 0.86666667460000002
0.90000001830000009 0.93333333730000001
1.0000000086 0.9333333372999999
1.0999999989 0.93333333729999979
1.1999999892 0.93333333730000012
1.2999999795000003 0.9333333372999999
1.3999999698000001 0.9333333372999999
1.4999999600999998 0.9333333372999999
1.5999999504 0.9333333372999999
1.6999999407000002 0.9333333372999999
1.7999999309999999 0.9333333372999999
0.90000001829999998 1
1.0000000086 1
1.0999999989 0.99999999999999989
1.1999999892 1
1.2999999795000001 0.99999999999999989
1.3999999698000001 0.99999999999999989
1.4999999601 0.99999999999999989
1.5999999504 0.99999999999999989
1.6999999407000002 0.99999999999999989
1.7999999310000001 0.99999999999999989
1.8999999330000001 0.80000001190000014
1.8999999330000004 0.86666667460000002
1.8999999329999999 0.9333333372999999
1.8999999329999999 1
1.999999935 0.80000001190000014
1.999999935 0.86666667460000002
1.999999935 0.93333333730000012
1.999999935 1
2.0999999369999998 0.80000001190000014
2.0999999369999998 0.86666667460000002
2.0999999369999998 0.93333333730000023
2.0999999369999998 1
2.199999939 0.80000001190000003
2.199999939 0.86666667460000002
2.199999939 0.93333333730000001
2.199999939 1
2.2999999409999998 0.80000001190000003
2.2999999409999998 0.86666667460000002
2.2999999409999998 0.93333333730000001
2.2999999409999998 1
2.3999999528 0.80000001189999914
2.3999999527999996 0.86666667460000046
2.4999999645999997 0.80000001189999859
2.4999999645999997 0.86666667460000146
2.5999999763999999 0.80000001189999859
2.5999999763999995 0.86666667460000235
2.6999999881999996 0.80000001189999903
2.6999999882000001 0.86666667460000379
2.7999999999999998 0.80000001190000003
2.7999999999999998 0.86666667460000557
2.3999999528 0.93333333730000201
2.4999999645999997 0.93333333730000412
2.5999999763999995 0.93333333730000634
2.6999999881999996 0.93333333730000878
2.7999999999999998 0.93333333730001133
2.3999999432632566 1
2.4999999455265134 1
2.5999999477897706 1
2.6999999500530274 1
2.7999999523162842 1
2.6147329682580547 0.49518504765110471
2.7019718358110332 0.39037625132785203
2.7249996933530301 0.48343747396848447
2.7999999999999998 0.5250000078
2.7082936626960614 0.57329272329679903
2.6351890262555036 0.73080486200474271
2.7076601576028523 0.67837460395981197
2.4915694213552912 0.70023307489113196
2.5658316636730683 0.73446353265513942
2.602399929754545 0.64127970257982492
2.7999999999999998 0.61666667583333334
2.4933186876724558 0.57695584864577376
2.2876613014115503 0.6962636108096153
2.3877200227409041 0.6489798359981207
2.6851936206938607 0.23551632403153819
2.7999999999999998 0.25000000369999997
2.7999999999999998 0.34166667173333332
2.3784338908423952 0.52803350025042906
2.4848671535592919 0.44836199963683937
2.2753226618231013 0.59252720971923045
2.5874974400725042 0.35267837986886152
2.4694150762215186 0.3241039474307908
2.5703872413877211 0.22103264436307651
2.2629840222346518 0.48879080862884577
2.3664857649559554 0.4126733228553241
2.2506453826462023 0.38505440753846099
2.2383067430577528 0.28131800644807631
2.3407744827754424 0.19206528502615328
2.3534086275289092 0.30067488670445081
2.7999999999999998 0.43333333976666666
2.7999999999999998 0.70833334386666669
2.455580862081582 0.20654896469461489
2.2259681034693033 0.1775816053576916
2.6999999618530275 0
2.7999999523162842 0
2.7999999999999998 0.083333334566657563
2.7239974949222248 0.11986225536374845
2.7999999999999998 0.16666666913332878
2.4149781216237876 0.095040327576564304
2.33217884129435 0.10623022606908963
2.3476636777741788 0.05332669143292304
2.2661147265108053 0.12565281942106626
2.2999999999999998 0
2.3999999904632565 0
2.5291805790328299 0.10628794935143383
2.6347938920642364 0.11379494908721766
2.2913631977875353 0.065066006888741201
2.5999999713897703 0
2.4999999809265137 0
2.1538768757308038 0.68186455403693957
2.0190862227487676 0.72562727686770956
2.0460298066667386 0.4946405738969567
1.9359870535890207 0.54705455697479211
1.945296464940939 0.43752445648614924
2.1412015522321406 0.32391084107574675
2.0480531427893465 0.38720523967900827
2.0493101244588838 0.30576482467970889
1.9218710403183428 0.66183569157367184
1.8123385927495956 0.69626361162990702
1.8246772544991914 0.59252721135981401
1.9572961718843984 0.32385367417419936
2.0111192640018323 0.24692716576112927
2.1549535233138015 0.55058150193026512
2.0387696154434591 0.6100633798956463
2.1509783391171862 0.43803190379838242
1.8370159162487874 0.488790811089721
2.0888804913867021 0.24692720270846058
2.1628785248923048 0.2230396974021458
1.9371208105442954 0.22303935387859658
1.8493545779983829 0.38505441081962793
1.8616932397479786 0.28131801054953487
1.8740319014975746 0.17758161027944191
0.77519401399092014 0.57652181995503016
0.76279100698638003 0.46478272398254528
0.84533286671550467 0.51141764935637313
0.95135102124106075 0.31387419938155658
0.87029273648833005 0.40703910005127075
0.84523748084467631 0.27821105937064761
0.84042697752524187 0.13436705348652561
0.92098115685428505 0.21963784325689689
0.78759702099546014 0.68826091592751515
0.93448608046097192 0.69991742459495021
0.997298248793277 0.4171279497266277
0.93923739541360129 0.50976070423301101
0.9924604623614286 0.60730693418268711
0.8791491806982924 0.59898389856000844
0.95527196907772338 0.13916867090796073
1.0132666289857499 0.23134013992576652
1.7591869099450932 0.17277999285800677
1.7545319973705187 0.31334610274496855
1.5808461118412542 0.54555932734960477
1.5503470598845399 0.4521276664642514
1.6529214345161434 0.4782702005620123
1.0611126112273774 0.32821708671419558
1.1106340251594871 0.42648863564366801
1.7213470384846068 0.61760402935285996
1.7405842649539305 0.52625167599135914
1.6742810582078833 0.25469047299709446
1.6375636384348804 0.36166660042790894
1.5762227354516913 0.25898168727712856
1.7452870741804773 0.42535796635881051
1.4622792572088814 0.25515872252283633
1.3957715707815199 0.34660315786851137
1.3483480835159534 0.2505309562493726
1.6190528236527304 0.62683660412759479
1.6629004578017774 0.55865796678013913
1.4806057407626216 0.53567244919299839
1.4403767542172876 0.44202806563467895
1.5102573410957456 0.35243204609074263
1.0507153419842827 0.51647344691789077
1.1606989828226077 0.5231165110972068
1.10258491975688 0.61316858378147043
1.4594566474762547 0.71123243883172604
1.5197182261455302 0.62469836898466391
1.5611794567976376 0.7111749419744442
1.0472784758537139 0.70479106750162368
1.6689439701199043 0.7080963477843244
1.3752007738542882 0.53041414689345601
1.3306651607601689 0.43675381198462804
1.2092570505489508 0.61758886674086333
1.1527614416518628 0.70782504205865959
1.3578651185304351 0.71075509540516935
1.417737199120134 0.62192678658412981
1.26840157101763 0.52693916242423788
1.2210211266274436 0.43220329076804875
1.28373292927859 0.34174827168883626
1.1227717834495747 0.23924792274825238
1.1723162533445799 0.33592841390642447
1.184961952182686 0.14877190575083105
1.235170635502544 0.24542685894628427
1.3140025227642922 0.61992287930478918
1.2557256083941237 0.70975751896647765
1.2998069437351676 0.15357352317226619
1.0701169606302048 0.1439702883293959
0.75038799998184014 0.35304362801006034
0.73798499297730036 0.2413045320375754
0.72558198597276047 0.12956543606509047
1.644341918392612 0.16797837543657165
1.414651935287649 0.15837514059370136
1.5294969268401302 0.16317675801513648
1.6999999407000002 0
1.7423114243262052 0.085450706262182319
1.6501423084166023 0.06661003270096523
1.5640583082641932 0.079621081806072164
0.90000001829999998 0
0.79098984235584591 0.051074933011547918
1.0000000086 0
1.1610128012539562 0.073678712072766259
1.2499845693138227 0.075667144361175914
1.8338853240213762 0.12565290339405477
1.7999999310000001 0
1.8086368270261564 0.06506609421392251
1.4603819746542179 0.079893779452004349
1.4999999601 0
1.0999999989000002 0
1.1999999892 0
1.2999999795000001 0
0.76516400708910415 0.096051081089363111
1.3541257500111268 0.077978725171192032
1.3999999698000001 0
1.5999999504 0
0.80000002800000003 0
0.22269281914839359 0.59838693235203089
0.3229368566190931 0.54332021152475907
0.32939588572354417 0.65281957799212353
0.094840608044558863 0.53101605218212089
0 0.5250000078
0 0.43333333976666666
0.1239219809722151 0.68089710746544929
0.25228815506919411 0.71138282394073671
0.42203190179501282 0.61290143605394953
0.41692484053685952 0.71502920962378858
0 0.70833334386666669
0.3395007411727119 0.7358968544574771
0.1148836066939057 0.22591309249421132
0.22976721338781139 0.20182618128842267
0.21989017350544088 0.33596631765980295
0.10665143638642458 0.39035922189031402
0 0.34166667173333332
0.32487676728389481 0.42316539429528316
0.42749961762619743 0.50120106383646568
0 0.61666667583333334
0.34465082008171705 0.17773927008263404
0.33322896856636131 0.2993895750493677
0.21475008917193128 0.47057209018486756
0.52480601342317612 0.57652182382368566
0.43605356094083003 0.38553985161132698
0.53720901843476421 0.46478272978552843
0.4471797856132998 0.26887669355099897
0.54961202344635229 0.35304363574737119
0.56201502845794038 0.24130454170921398
0.51240300841158803 0.68826091786184285
0 0.25000000369999997
0.45953442677562278 0.15365235887684542
0.57441803346952847 0.12956544767105677
0.64999964767595175 0.66513810841946264
0.64999744551051786 0.52640125756816469
0.62373494085572978 0.14766145283045867
0.64999664377709232 0.21607160307073708
0.67626856509639732 0.14766088845322362
0.64997969149809354 0.30242660032321389
0.64999015336318078 0.41070022703969516
0.5 0
0.50901016093017781 0.051074943257419715
0.46265791111564153 0.063736522269380216
0.10000000000000001 0
0.075948942944611325 0.11648143949987287
0 0.083333334566666667
0.37256687527106364 0.081640737687994624
0 0.16666666913333333
0.26858994143723713 0.094689259558876943
0.29999999999999999 0
0.16486110802915091 0.10649410130515298
0.53483600371698503 0.096051093794021547
0.40000000000000002 0
0 0
0.20000000000000001 0
))
(12 (0 1 1e8 0 0))
(12 (8 1 1e8 1 0)
( 1 1 1 1 1 1 1 1 1 1 1 1 1 1 1 1 1 1 1 1
 1 1 1 1 1 1 1 1 1 1 1 1 1 1 1 1 1 1 1 1
 1 1 1 1 1 1 1 1 1 1 1 1 1 1 1 1 1 1 1 1
 1 1 1 1 1 1 1 1 1 1 1 1 1 1 1 1 1 1 1 1
 1 1 1 1 1 1 1 1 1 1 1 1 1 1 1 1 1 1 1 1
 1 1 1 1 1 1 1 1 1 1 1 1 1 1 1 1 1 1 1 1
 1 1 1 1 1 1 1 1 1 1 1 1 1 1 1 1 1 1 1 1
 1 1 1 1 1 1 1 1 1 1 1 1 1 1 1 1 1 1 1 1
 1 1 1 1 1 1 1 1 1 1 1 1 1 1 1 1 1 1 1 1
 1 1 1 1 1 1 1 1 1 1 1 1 1 1 1 1 1 1 1 1
 1 1 1 1 1 1 1 1 1 1 1 1 1 1 1 1 1 1 1 1
 1 1 1 1 1 1 1 1 1 1 1 1 1 1 1 1 1 1 1 1
 1 1 1 1 1 1 1 1 1 1 1 1 1 1 1 1 1 1 1 1
 1 1 1 1 1 1 1 1 1 1 1 1 1 1 1 1 1 1 1 1
 1 1 1 1 1 1 1 1 1 1 1 1 1 1 1 1 1 1 1 1
 1 1 1 1 1 1 1 1 1 1 1 1 1 1 1 1 1 1 1 1
 1 1 1 1 1 1 1 1 1 1 1 1 1 1 1 1 1 1 1 1
 1 1 1 1 1 1 1 1 1 1 1 1 1 1 1 1 1 1 1 1
 1 1 1 1 1 1 1 1 1 1 1 1 1 1 1 1 1 1 1 1
 1 1 1 1 1 1 1 1 1 1 1 1 1 1 1 1 1 1 1 1
 1 1 1 1 3 3 3 3 3 3 3 3 3 3 3 3 3 3 3 3
 3 3 3 3 3 3 3 3 3 3 3 3 3 3 3 3 3 3 3 3
 3 3 3 3 3 3 3 3 3 3 3 3 3 3 3 3 3 3 3 3
 3 3 3 3 3 3 3 3 3 3 3 3 3 3 3 3 3 3 3 3
 3 3 3 3 3 3 3 3
))
(13 (0 1 334 0 0))
(0 "Interior faces of zone FLUID")
(13 (9 1 2d8 2 2)(
75 76 1 12
76 77 1 14
77 75 1 11
78 79 2 2a
79 77 2 11
77 78 2 13
67 7a 3 1b
7a 7b 3 1c
7b 67 3 17
63 7c 4 23
7c 7d 4 1d
7d 63 4 19
7e 7a 5 1c
7a 7d 5 1a
7d 7e 5 1d
7b 79 6 1f
79 7f 6 2a
7f 7b 6 1e
80 75 7 2b
75 7e 7 20
7e 80 7 21
61 5d 8 1da
5d 81 8 7b
81 61 8 22
61 82 9 22
82 7c 9 28
7c 61 9 23
83 84 a 42
85 83 a 24
86 87 b 2d
87 80 b 2b
80 86 b 26
88 86 c e
86 82 c 26
82 88 c 27
89 8a d 16
8a 8b d 2c
8b 89 d 29
88 8c e 72
8c 86 e 2e
8d 8c f 2e
8c 8e f 5c
8e 8d f 32
8f 90 10 36
90 91 10 34
91 8f 10 35
79 75 11 20
75 89 12 15
89 76 12 25
77 92 13 14
76 92 14 2f
75 87 15 2b
87 89 15 16
87 8a 16 30
7b 93 17 1e
93 67 17 18
69 67 18 1de
7d 65 19 1a
65 63 19 1dc
7a 65 1a 1b
67 65 1b 1dd
7e 7b 1c 1f
7c 7e 1d 21
7e 79 1f 20
7c 80 21 28
81 82 22 27
63 61 23 1db
85 76 24 2f
76 83 24 25
89 83 25 29
80 82 26 28
81 88 27 58
8b 83 29 4d
94 8b 2c 4f
8a 94 2c 33
8d 87 2d 30
86 8d 2d 2e
8d 8a 30 31
91 8a 31 33
8d 91 31 32
8e 91 32 35
91 94 33 34
90 94 34 3b
8e 8f 35 79
8f 95 36 7e
95 90 36 3a
98 96 37 3f
83 99 38 41
99 9a 38 40
9a 83 38 42
9b 9c 39 44
9c 9d 39 43
9d 9b 39 4a
9e 90 3a 46
90 9b 3b 44
9b 94 3b 49
a0 9d 3c 4a
9d 9f 3c 4b
8b a1 3d 4f
a1 a2 3d 4c
a2 8b 3d 4d
99 a2 3e 41
a2 96 3e 47
96 99 3e 3f
98 99 3f 40
83 a2 41 4d
9c a3 43 45
a3 9d 43 4b
90 9c 44 46
9c 9e 45 46
a2 a4 47 4c
9b a5 48 4e
a5 a1 48 50
a1 9b 48 49
a1 94 49 4f
a0 9b 4a 4e
a1 a4 4c 50
a6 59 51 6e
59 55 51 1d4
55 a6 51 5d
4d a7 52 60
a7 51 52 61
51 4d 52 1ce
a8 a9 53 6c
a9 aa 53 75
aa a8 53 64
ab ac 54 77
ac ad 54 69
ad ab 54 66
ae af 55 62
af b0 55 e6
b0 ae 55 68
b1 b2 56 6a
b2 ad 56 6d
ad b1 56 69
b3 a6 57 6f
a6 b4 57 5e
b4 b3 57 6b
a6 88 58 6f
81 a6 58 6e
b1 ac 59 69
ac aa 59 64
aa b1 59 71
b3 b5 5a 73
b5 8c 5a 5c
8c b3 5a 72
a9 b0 5b 68
b0 b6 5b c9
b6 a9 5b 75
b5 8e 5c 76
55 a7 5d 61
a7 a6 5d 5e
a7 b4 5e 5f
ae b4 5f 67
a7 ae 5f 60
4d ae 60 62
55 51 61 1d1
4d af 62 7c
ac b5 63 77
b5 a8 63 73
a8 ac 63 64
b8 ab 65 78
ab b7 65 66
ad b7 66 6d
a9 b4 67 6c
ae a9 67 68
b1 b9 6a 74
b4 a8 6b 6c
a8 b3 6b 73
81 59 6e 7b
b3 88 6f 72
ba bb 70 d0
bb b1 70 74
b1 ba 70 71
aa ba 71 7a
bb b9 74 7d
b6 aa 75 7a
b5 ab 76 77
ab 8e 76 79
b8 8f 78 7e
8f ab 78 79
b6 ba 7a cf
5d 59 7b 1d7
37 af 7c 8d
4d 37 7c 1cb
bb bc 7d c2
bd be 7f 165
be bf 7f b8
bf bd 7f b0
c0 c1 80 bb
c1 c2 80 b2
c2 c0 80 b1
c3 c4 81 c1
c4 c2 81 b1
c2 c3 81 b3
c5 c6 82 b5
c6 25 82 e2
25 c5 82 b6
c1 c7 83 bb
c7 c8 83 be
c8 c1 83 b7
c9 ca 84 bc
ca c8 84 af
c8 c9 84 bd
c4 cb 85 c1
cb cc 85 106
cc c4 85 c0
cd bb 86 c2
bb ce 86 d0
ce cd 86 c3
cf d0 87 9c
d0 d1 87 c5
d1 cf 87 c6
d2 d3 88 f4
d3 c7 88 c7
c7 d2 88 c8
b0 d4 89 e6
d4 d5 89 d6
d5 b0 89 c9
d6 d7 8a 93
d7 d8 8a d9
d8 d6 8a cc
d9 d5 8b ca
d5 d1 8b cd
d1 d9 8b ce
da db 8c e8
db dc 8c f0
dc da 8c d2
37 35 8d 1b6
35 af 8d d3
d4 dd 8e de
dd de 8e d5
de d4 8e d6
d0 df 8f 9c
df e0 8f a1
e0 d0 8f d8
d7 d0 90 c5
d0 e1 90 d8
e1 d7 90 d9
e2 e3 91 db
e3 e4 91 ea
e4 e2 91 da
e5 e6 92 f3
e6 e7 92 ee
e7 e5 92 dc
d6 ce 93 c3
ce d7 93 df
d8 e1 94 d9
e1 da 94 e8
da d8 94 e1
c6 e8 95 e3
e8 27 95 f1
27 c6 95 e2
c9 e4 96 da
e4 e8 96 e9
e8 c9 96 e3
e7 dd 97 ee
dd e9 97 de
e9 e7 97 e4
e0 ea 98 a1
ea eb 98 a5
eb e0 98 e7
e1 e0 99 d8
e0 db 99 e7
db e1 99 e8
e4 ec 9a ea
ec ed 9a f9
ed e4 9a e9
ee ef 9b f7
ef e5 9b f3
e5 ee 9b eb
cf df 9c ed
e6 cf 9d ed
cf dd 9d d5
dd e6 9d ee
eb f0 9e a5
f0 f1 9e ad
f1 eb 9e ef
db eb 9f e7
eb f2 9f ef
f2 db 9f f0
e8 ed a0 e9
ed 29 a0 f8
29 e8 a0 f1
df ea a1 f2
ef df a2 f2
df e6 a2 ed
e6 ef a2 f3
d2 f3 a3 102
f3 f4 a3 f5
f4 d2 a3 f4
f3 f5 a4 101
f5 f6 a4 fc
f6 f3 a4 f5
ea f0 a5 f6
f7 ea a6 f6
ea ef a6 f2
ef f7 a6 f7
ed f8 a7 f9
f8 2b a7 105
2b ed a7 f8
f6 f9 a8 fc
f9 dc a8 fa
dc f6 a8 fb
f8 f7 a9 104
f7 ee a9 f7
ee f8 a9 fd
d3 f4 aa f4
f4 f1 aa 100
f1 d3 aa ff
f4 f6 ab f5
f6 f2 ab fb
f2 f4 ab 100
cc fa ac 106
fa f3 ac 101
f3 cc ac 102
e3 f1 ad ff
f0 e3 ad 103
ec f0 ae 103
f0 f7 ae f6
f7 ec ae 104
bf c8 af b7
ca bf af b0
ca bd b0 b9
c4 c0 b1 c0
fb c2 b2 b4
c1 fb b2 bf
c2 fc b3 b4
fc c3 b3 ba
fb fc b4 17c
c5 ca b5 b9
ca c6 b5 bc
25 d b6 1ad
d c5 b6 16f
bf c1 b7 b8
be c1 b8 bf
c5 bd b9 169
fc fd ba 176
fd c3 ba 111
c0 c7 bb c8
c9 c6 bc e3
c8 e2 bd be
e2 c9 bd da
c7 e2 be c7
be fb bf 173
cc c0 c0 c4
c3 cb c1 117
cd bc c2 11d
d6 cd c3 cb
cc d2 c4 102
d2 c0 c4 c8
d7 d1 c5 ce
d1 de c6 cd
de cf c6 d5
d3 e2 c7 db
d5 b6 c9 ca
d9 b6 ca cf
fe cd cb 119
d6 fe cb cc
d8 fe cc e0
d5 de cd d6
d7 d9 ce df
d9 ba cf d7
ba ce d0 d7
ff 100 d1 12c
100 da d1 e1
da ff d1 d2
dc ff d2 fa
35 e9 d3 e5
e9 af d3 d4
e9 d4 d4 de
d4 af d4 e6
d9 ce d7 df
d3 e3 db ff
e7 31 dc dd
31 e5 dc ec
33 31 dd 1b4
e7 33 dd e4
100 fe e0 127
d8 100 e0 e1
27 25 e2 1ae
e9 33 e4 e5
35 33 e5 1b5
e3 ec ea 103
e5 2f eb ec
2f ee eb fe
31 2f ec 1b3
f1 f2 ef 100
f2 dc f0 fb
29 27 f1 1af
2b 29 f8 1b0
ec f8 f9 104
f9 ff fa 112
f5 f9 fc 11b
ee 2d fd fe
2d f8 fd 105
2f 2d fe 1b2
fa f5 101 121
2d 2b 105 1b1
cb fa 106 11a
101 102 107 123
102 103 107 116
103 101 107 114
fe 104 108 127
104 103 108 115
103 fe 108 116
105 c3 109 117
c3 106 109 126
106 105 109 118
cb 105 10a 117
107 cb 10a 11a
f5 108 10b 121
108 109 10b 11c
109 f5 10b 11b
cd 102 10c 119
102 10a 10c 11e
10a cd 10c 11d
102 10b 10d 123
10c 102 10d 11e
10d 10e 10e 12a
10e 104 10e 11f
104 10d 10e 120
fa 107 10f 11a
10f fa 10f 122
109 110 110 11c
111 109 110 125
112 c3 111 126
f9 113 112 124
113 ff 112 129
10d 113 113 129
113 114 113 12b
114 10d 113 12a
103 115 114 115
104 115 115 11f
102 fe 116 119
109 f9 11b 124
108 110 11c 128
104 100 120 127
100 10d 120 12c
fa 108 121 122
10f 108 122 128
109 113 124 125
111 113 125 12b
10d ff 129 12c
117 118 12d 14e
118 119 12d 147
119 117 12d 141
11a 11b 12e 143
11c 11a 12e 142
11d 11e 12f 144
11e 15 12f 14b
15 11d 12f 145
11f 120 130 14d
120 119 130 146
119 11f 130 147
12 11 131 19e
121 12 131 148
19 17 132 1a1
17 122 132 149
122 19 132 14a
1 19 133 1a2
19 120 133 14a
120 1 133 14c
117 11d 134 144
11d 11a 134 154
11a 117 134 14f
123 124 135 190
124 125 135 155
125 123 135 150
123 126 136 150
126 127 136 15b
127 123 136 151
128 129 137 13c
129 118 137 152
118 128 137 153
11d 121 138 148
12a 11d 138 154
124 12b 139 194
12b 12c 139 15f
12c 124 139 155
126 125 13a 150
125 12d 13a 15a
12d 126 13a 156
11f 129 13b 152
129 12e 13b 15c
12e 11f 13b 157
12f 129 13c 13d
128 12f 13c 158
12f 130 13d 15d
130 129 13d 15c
12f 131 13e 15e
131 132 13e 13f
132 12f 13e 15d
133 132 13f 17b
131 133 13f 160
119 122 140 146
122 11e 140 149
11e 119 140 141
11e 117 141 144
11c 126 142 15b
126 11a 142 156
11a 12a 143 154
15 12 145 19f
12 11d 145 148
120 122 146 14a
118 11f 147 152
17 11e 149 14b
17 15 14b 1a0
120 134 14c 14d
134 1 14c 16e
11f 134 14d 157
12d 118 14e 153
117 12d 14e 14f
11a 12d 14f 156
135 123 151 180
12d 128 153 15a
12c 125 155 159
12e 134 157 16d
128 12c 158 159
12c 12f 158 15e
128 125 159 15a
130 12e 15c 170
132 130 15d 179
12c 131 15e 15f
12b 131 15f 161
131 136 160 161
136 133 160 162
12b 136 161 18f
136 137 162 192
137 133 162 166
138 c5 163 169
c5 9 163 16f
9 138 163 16a
12e 139 164 170
139 138 164 16c
138 12e 164 16d
bd 139 165 16c
139 be 165 171
13a 133 166 174
fc 13b 167 17a
13b 13c 167 177
13c fc 167 176
13d fb 168 17c
fb 13e 168 173
13e 13d 168 178
138 bd 169 16c
9 2 16a 198
2 138 16a 16b
134 138 16b 16d
2 134 16b 16e
2 1 16e 195
d 9 16f 19b
130 139 170 172
139 13e 171 172
13e be 171 173
130 13e 172 179
13a 13b 174 177
13b 133 174 175
13b 13d 175 17a
13d 133 175 17b
13e 132 178 179
132 13d 178 17b
fc 13d 17a 17c
140 141 17d 188
141 13f 17d 184
142 143 17e 186
143 144 17e 189
144 142 17e 187
136 145 17f 18f
145 141 17f 185
141 136 17f 183
146 123 180 18a
147 148 181 193
148 145 181 18c
145 147 181 18d
149 147 182 191
147 124 182 194
124 149 182 190
141 14a 183 188
14a 136 183 192
141 14b 184 185
145 14b 185 18c
142 149 186 18e
149 143 186 18b
143 146 189 18a
143 123 18a 18b
149 123 18b 190
145 12b 18d 18f
12b 147 18d 194
14d 149 18e 191
14d 147 191 193
2 4 195 198
4 3 195 196
3 1 195 1a2
4 6 196 199
6 5 196 197
5 3 196 1a7
6 8 197 19a
7 5 197 1ac
9 a 198 19b
a 4 198 199
a b 199 19c
b 6 199 19a
b c 19a 19d
d e 19b 1ad
e a 19b 19c
e f 19c 1b7
f b 19c 19d
f 10 19d 1c1
12 14 19e 19f
14 13 19e 1a3
15 16 19f 1a0
16 14 19f 1a4
17 18 1a0 1a1
18 16 1a0 1a5
19 1a 1a1 1a2
1a 18 1a1 1a6
3 1a 1a2 1a7
14 1c 1a3 1a4
1c 1b 1a3 1a8
16 1d 1a4 1a5
1d 1c 1a4 1a9
18 1e 1a5 1a6
1e 1d 1a5 1aa
1a 1f 1a6 1a7
1f 1e 1a6 1ab
5 1f 1a7 1ac
1c 21 1a8 1a9
1d 22 1a9 1aa
1e 23 1aa 1ab
1f 24 1ab 1ac
25 26 1ad 1ae
26 e 1ad 1b7
27 28 1ae 1af
28 26 1ae 1b8
29 2a 1af 1b0
2a 28 1af 1b9
2b 2c 1b0 1b1
2c 2a 1b0 1ba
2d 2e 1b1 1b2
2e 2c 1b1 1bb
2f 30 1b2 1b3
30 2e 1b2 1bc
31 32 1b3 1b4
32 30 1b3 1bd
33 34 1b4 1b5
34 32 1b4 1be
35 36 1b5 1b6
36 34 1b5 1bf
37 38 1b6 1cb
38 36 1b6 1c0
26 39 1b7 1b8
39 f 1b7 1c1
28 3a 1b8 1b9
3a 39 1b8 1c2
2a 3b 1b9 1ba
3b 3a 1b9 1c3
2c 3c 1ba 1bb
3c 3b 1ba 1c4
2e 3d 1bb 1bc
3d 3c 1bb 1c5
30 3e 1bc 1bd
3e 3d 1bc 1c6
32 3f 1bd 1be
3f 3e 1bd 1c7
34 40 1be 1bf
40 3f 1be 1c8
36 41 1bf 1c0
41 40 1bf 1c9
38 42 1c0 1cc
42 41 1c0 1ca
39 43 1c1 1c2
3a 44 1c2 1c3
3b 45 1c3 1c4
3c 46 1c4 1c5
3d 47 1c5 1c6
3e 48 1c6 1c7
3f 49 1c7 1c8
40 4a 1c8 1c9
41 4b 1c9 1ca
42 4c 1ca 1cd
4d 4e 1cb 1ce
4e 38 1cb 1cc
4e 4f 1cc 1cf
4f 42 1cc 1cd
4f 50 1cd 1d0
51 52 1ce 1d1
52 4e 1ce 1cf
52 53 1cf 1d2
53 4f 1cf 1d0
53 54 1d0 1d3
55 56 1d1 1d4
56 52 1d1 1d2
56 57 1d2 1d5
57 53 1d2 1d3
57 58 1d3 1d6
59 5a 1d4 1d7
5a 56 1d4 1d5
5a 5b 1d5 1d8
5b 57 1d5 1d6
5b 5c 1d6 1d9
5d 5e 1d7 1da
5e 5a 1d7 1d8
5e 5f 1d8 1df
5f 5b 1d8 1d9
5f 60 1d9 1e4
61 62 1da 1db
62 5e 1da 1df
63 64 1db 1dc
64 62 1db 1e0
65 66 1dc 1dd
66 64 1dc 1e1
67 68 1dd 1de
68 66 1dd 1e2
6a 68 1de 1e3
62 6b 1df 1e0
6b 5f 1df 1e4
64 6c 1e0 1e1
6c 6b 1e0 1e5
66 6d 1e1 1e2
6d 6c 1e1 1e6
68 6e 1e2 1e3
6e 6d 1e2 1e7
6f 6e 1e3 1e8
6b 70 1e4 1e5
6c 71 1e5 1e6
6d 72 1e6 1e7
6e 73 1e7 1e8
)
)
(0 "Faces of zone HOT")
(13 (a 2d9 2ec 3 2)(
14c 142 187 0
142 14d 18e 0
14d 148 193 0
148 14b 18c 0
14b 13f 184 0
116 105 118 0
105 107 10a 0
107 10f 10f 0
10f 110 128 0
110 111 110 0
111 114 12b 0
114 10e 12a 0
10e 115 11f 0
115 101 114 0
101 10b 123 0
9f a0 3c 0
a0 a5 4e 0
a5 a4 50 0
a4 96 47 0
96 97 37 0
)
)
(0 "Faces of zone INLET")
(13 (b 2ed 2f8 a 2)(
127 135 151 0
11c 127 15b 0
11b 11c 12e 0
12a 11b 143 0
121 12a 138 0
11 121 131 0
135 146 180 0
146 144 189 0
144 14c 187 0
13 11 19e 0
1b 13 1a3 0
20 1b 1a8 0
)
)
(0 "Faces of zone OUTLET")
(13 (c 2f9 304 5 2)(
97 98 37 0
98 9a 40 0
9a 84 42 0
84 85 a 0
85 92 2f 0
92 78 13 0
78 7f 2a 0
7f 93 1e 0
93 69 18 0
69 6a 1de 0
6a 6f 1e3 0
6f 74 1e8 0
)
)
(0 "Faces of zone WALL")
(13 (d 305 318 3 2)(
a3 9f 4b 0
9e a3 45 0
95 9e 3a 0
137 13a 166 0
13a 13c 177 0
13c fd 176 0
14a 137 192 0
140 14a 188 0
13f 140 17d 0
fd 112 111 0
112 106 126 0
106 116 118 0
bc b9 7d 0
b9 b2 6a 0
b2 b7 6d 0
b7 b8 65 0
b8 95 7e 0
10a bc 11d 0
10c 10a 11e 0
10b 10c 10d 0
)
)
(0 "Faces of zone TOP")
(13 (e 319 334 3 2)(
8 7 197 0
c 8 19a 0
10 c 19d 0
43 10 1c1 0
44 43 1c2 0
45 44 1c3 0
46 45 1c4 0
47 46 1c5 0
48 47 1c6 0
49 48 1c7 0
4a 49 1c8 0
4b 4a 1c9 0
4c 4b 1ca 0
50 4c 1cd 0
54 50 1d0 0
58 54 1d3 0
5c 58 1d6 0
60 5c 1d9 0
21 20 1a8 0
22 21 1a9 0
23 22 1aa 0
24 23 1ab 0
7 24 1ac 0
70 60 1e4 0
71 70 1e5 0
72 71 1e6 0
73 72 1e7 0
74 73 1e8 0
)
)
(0 "Zone Sections")
(39 (8 fluid FLUID)())
(39 (9 interior int_FLUID)())
(39 (10 wall HOT)())
(39 (11 velocity-inlet INLET)())
(39 (12 outlet-vent OUTLET)())
(39 (13 wall WALL)())
(39 (14 wall TOP)())
