(0 " Created by : Fluent_V6 Interface Vers. 18.0.0")
(2 2)
(0 "Node Section")
(10 (0 1 144 0 2))
(10 (5 1 144 1 2)
(
0 0
0.1371999979019165 0
0 0.125
0.1371999979019165 0.125
0 0.25
0.1371999979019165 0.25
0 0.375
0.1371999979019165 0.375
0 0.5
0.1371999979019165 0.5
0.24590000510215759 0
0.24590000510215759 0.125
0.24590000510215759 0.25
0.24590000510215759 0.375
0.24590000510215759 0.5
0.33869999647140503 0
0.33869999647140503 0.125
0.33869999647140503 0.25
0.33869999647140503 0.375
0.33869999647140503 0.5
0.42120000720024109 0
0.42120000720024109 0.125
0.42120000720024109 0.25
0.42120000720024109 0.375
0.42120000720024109 0.5
0.49599999189376831 0
0.49599999189376831 0.125
0.49599999189376831 0.25
0.49599999189376831 0.375
0.49599999189376831 0.5
0.56510001420974731 0
0.56510001420974731 0.125
0.56510001420974731 0.25
0.56510001420974731 0.375
0.56510001420974731 0.5
0.62949997186660767 0
0.62949997186660767 0.125
0.62949997186660767 0.25
0.62949997186660767 0.375
0.62949997186660767 0.5
0.69019997119903564 0
0.69019997119903564 0.125
0.69019997119903564 0.25
0.69019997119903564 0.375
0.69019997119903564 0.5
0.7476000189781189 0
0.7476000189781189 0.125
0.7476000189781189 0.25
0.7476000189781189 0.375
0.7476000189781189 0.5
0.80229997634887695 0
0.80229997634887695 0.125
0.80229997634887695 0.25
0.80229997634887695 0.375
0.80229997634887695 0.5
0.85470002889633179 0
0.85470002889633179 0.125
0.85470002889633179 0.25
0.85470002889633179 0.375
0.85470002889633179 0.5
0.90490001440048218 0
0.90490001440048218 0.125
0.90490001440048218 0.25
0.90490001440048218 0.375
0.90490001440048218 0.5
0.95329999923706055 0
0.95329999923706055 0.125
0.95329999923706055 0.25
0.95329999923706055 0.375
0.95329999923706055 0.5
1 0
1 0.125
1 0.25
1 0.375
1 0.5
0 0.625
0.1371999979019165 0.625
0 0.75
0.1371999979019165 0.75
0 0.875
0.1371999979019165 0.875
0 1
0.1371999979019165 1
0.24590000510215759 0.625
0.24590000510215759 0.75
0.24590000510215759 0.875
0.24590000510215759 1
0.33869999647140503 0.625
0.33869999647140503 0.75
0.33869999647140503 0.875
0.33869999647140503 1
0.42120000720024109 0.625
0.42120000720024109 0.75
0.42120000720024109 0.875
0.42120000720024109 1
0.49599999189376831 0.625
0.49599999189376831 0.75
0.49599999189376831 0.875
0.49599999189376831 1
0.56510001420974731 0.625
0.56510001420974731 0.75
0.56510001420974731 0.875
0.56510001420974731 1
0.62949997186660767 0.625
0.62949997186660767 0.75
0.62949997186660767 0.875
0.62949997186660767 1
0.69019997119903564 0.625
0.69019997119903564 0.75
0.69019997119903564 0.875
0.69019997119903564 1
0.7476000189781189 0.625
0.7476000189781189 0.75
0.7476000189781189 0.875
0.7476000189781189 1
0.80229997634887695 0.625
0.80229997634887695 0.75
0.80229997634887695 0.875
0.80229997634887695 1
0.85470002889633179 0.625
0.85470002889633179 0.75
0.85470002889633179 0.875
0.85470002889633179 1
0.90490001440048218 0.625
0.90490001440048218 0.75
0.90490001440048218 0.875
0.90490001440048218 1
0.95329999923706055 0.625
0.95329999923706055 0.75
0.95329999923706055 0.875
0.95329999923706055 1
1 0.625
1 0.75
1 0.875
1 1
1.7900919914245605 0.65221565961837769
1.7181472778320312 0.65173238515853882
1.7536782026290894 0.60096430778503418
1.6554296016693115 0.66278880834579468
1.8207874298095703 0.57517129182815552
1.9037595987319946 0.59448009729385376
1.8455538749694824 0.6614309549331665
1.7523094415664673 0.50105088949203491
1.7541114091873169 0.67941921949386597
1.8080276250839233 0.70960664749145508
1.6355854272842407 0.49962830543518066
1.6826897859573364 0.58405947685241699
1.6004434823989868 0.60031098127365112
1.5462518930435181 0.53933262825012207
1.864134669303894 0.49552732706069946
2 0.50131404399871826
1.6898099184036255 0.71289747953414917
1.4647706747055054 0.53016811609268188
1.8615177869796753 0.77468204498291016
1.8569649457931519 0.71814930438995361
1.9061923027038574 0.74946153163909912
1.9185752868652344 0.82064485549926758
1.9057368040084839 0.90426099300384521
1.8489563465118408 0.84735757112503052
2 0.7487446665763855
1.8205975294113159 0.74610447883605957
1.8051202297210693 0.79426264762878418
2 0.6377718448638916
1.9167653322219849 0.6802404522895813
2 0.86458832025527954
2 1
1.6818891763687134 0.41359198093414307
1.7432944774627686 0.39958015084266663
1.71799635887146 0.35459774732589722
1.779442310333252 0.36065319180488586
1.6006797552108765 0.40258169174194336
1.6576218605041504 0.35110542178153992
1.7451117038726807 0.32052034139633179
1.7083147764205933 0.30709388852119446
1.8391646146774292 0.33199015259742737
1.8250821828842163 0.40961393713951111
1.9032429456710815 0.40162667632102966
1.54157555103302 0.45530983805656433
1.7847895622253418 0.31154760718345642
2 0.24682846665382385
1.9174636602401733 0.31927490234375
1.9056676626205444 0.25096940994262695
1.8519861698150635 0.27592375874519348
1.852158784866333 0.2251950204372406
1.8134605884552002 0.28118491172790527
1.8206517696380615 0.25227457284927368
1.8377288579940796 0.16804245114326477
2 0.13526023924350739
1.915507435798645 0.18168304860591888
1.9023729562759399 0.097578518092632294
2 0.36190754175186157
1.801810622215271 0.20189321041107178
2 0
1.5073950290679932 0.74569898843765259
1.4270015954971313 0.829559326171875
1.40667724609375 0.75151783227920532
1.3550945520401001 0.7810899019241333
1.3621934652328491 0.72521388530731201
1.3987467288970947 0.9052007794380188
1.3424801826477051 0.84459024667739868
1.3205162286758423 0.75494128465652466
1.3082503080368042 0.79008525609970093
1.3374049663543701 0.66518372297286987
1.498985767364502 0.62690150737762451
1.4240338802337646 0.66819864511489868
1.4048246145248413 0.58930706977844238
1.4966319799423218 0.85396093130111694
1.5 1
1.4688963890075684 0.93076497316360474
1.3131200075149536 0.71815657615661621
1.7457015514373779 1
1.6755867004394531 0.91559803485870361
1.7554978132247925 0.89749211072921753
1.7258604764938354 0.85671043395996094
1.7932348251342773 0.84990119934082031
1.5783681869506836 0.91031366586685181
1.6509501934051514 0.84734082221984863
1.7583039999008179 0.82020241022109985
1.6985292434692383 0.7984621524810791
1.8653708696365356 1
1.8209460973739624 0.91618341207504272
1.6233466863632202 1
1.640860915184021 0.72557175159454346
1.6411329507827759 0.78229731321334839
1.5909665822982788 0.75803542137145996
1.5842326879501343 0.68041771650314331
1.6793199777603149 0.75118571519851685
1.5804107189178467 0.81827801465988159
1.223204493522644 0.85159802436828613
1.2939200401306152 0.84633415937423706
1.2557790279388428 0.89533066749572754
1.1883021593093872 0.91606736183166504
1.0927492380142212 0.90752255916595459
1.154961109161377 0.84091717004776001
1.2595552206039429 1
1.2584863901138306 0.82017874717712402
1.1917791366577148 0.79012602567672729
1.3856017589569092 1
1.3245187997817993 0.91214704513549805
1.1359802484512329 1
1.0837357044219971 0.69210326671600342
1.0962382555007935 0.74525803327560425
1.1380770206451416 0.72735780477523804
1.1446571350097656 0.78329676389694214
1.1131501197814941 0.5921587347984314
1.1453869342803955 0.65276807546615601
1.1795909404754639 0.75631862878799438
1.1971559524536133 0.70303952693939209
1.0843920707702637 0.8163115382194519
1.0798270702362061 0.5302245020866394
1.2550528049468994 0.49387404322624207
1.3153691291809082 0.58785849809646606
1.2524361610412598 0.58584815263748169
1.2776138782501221 0.64520609378814697
1.2145704030990601 0.65295648574829102
1.2838408946990967 0.68792551755905151
1.2449406385421753 0.67949295043945313
1.1490752696990967 0.50623142719268799
1.187891960144043 0.57791173458099365
1.3735089302062988 0.50321328639984131
1.2050907611846924 0.35158199071884155
1.287265419960022 0.35371291637420654
1.2504223585128784 0.39436748623847961
1.3511052131652832 0.3351253867149353
1.1826536655426025 0.4295770525932312
1.1424990892410278 0.35004687309265137
1.2459595203399658 0.32058626413345337
1.2001365423202515 0.30013063549995422
1.3192949295043945 0.41818100214004517
1.4008967876434326 0.3983343243598938
1.4686886072158813 0.45198896527290344
1.0823980569839478 0.43395909667015076
1.310144305229187 0.2871805727481842
1.1391198635101318 0.21705850958824158
1.1508611440658569 0.29122143983840942
1.1064050197601318 0.24721930921077728
1.0856609344482422 0.18395636975765228
1.1013357639312744 0.092107184231281281
1.1578133106231689 0.15612119436264038
1.1796500682830811 0.25707942247390747
1.208163857460022 0.19301517307758331
1.0798970460891724 0.32139909267425537
1.6467854976654053 0.22284774482250214
1.6502783298492432 0.29113408923149109
1.5974577665328979 0.25821086764335632
1.5783944129943848 0.18273138999938965
1.5828582048416138 0.10337601602077484
1.6528298854827881 0.15508806705474854
1.4963655471801758 0.25159174203872681
1.6794360876083374 0.25432789325714111
1.7011888027191162 0.19886307418346405
1.5019130706787109 0.36692842841148376
1.5799007415771484 0.32028958201408386
1.4943351745605469 0.14274726808071136
1.5 0
1.5339007377624512 0.066973581910133362
1.7757502794265747 0.14779143035411835
1.7126996517181396 0.14476029574871063
1.750234842300415 0.10192113369703293
1.820691704750061 0.085792995989322662
1.7424973249435425 0
1.7456920146942139 0.17943453788757324
1.622736930847168 0
1.6750965118408203 0.084621049463748932
1.8619760274887085 0
1.2618521451950073 0
1.3119566440582275 0.089370504021644592
1.2585614919662476 0.091844037175178528
1.2705318927764893 0.13662856817245483
1.2149120569229126 0.14504867792129517
1.4119153022766113 0.10540422052145004
1.3408392667770386 0.16661825776100159
1.2420958280563354 0.17974559962749481
1.2962902784347534 0.19657036662101746
1.1369551420211792 0
1.1891638040542603 0.08265368640422821
1.3988332748413086 0
1.4730377197265625 0.071386821568012238
1.4195761680603027 0.31456342339515686
1.4163892269134521 0.24629752337932587
1.3570075035095215 0.27599003911018372
1.3573547601699829 0.22050881385803223
1.3206558227539062 0.25211870670318604
1.4172345399856567 0.18913264572620392
))
(12 (0 1 1c0 0 0))
(12 (6 1 1c0 1 0)
( 1 1 1 1 1 1 1 1 1 1 1 1 1 1 1 1 1 1 1 1
 1 1 1 1 1 1 1 1 1 1 1 1 1 1 1 1 1 1 1 1
 1 1 1 1 1 1 1 1 1 1 1 1 1 1 1 1 1 1 1 1
 1 1 1 1 1 1 1 1 1 1 1 1 1 1 1 1 1 1 1 1
 1 1 1 1 1 1 1 1 1 1 1 1 1 1 1 1 1 1 1 1
 1 1 1 1 1 1 1 1 1 1 1 1 1 1 1 1 1 1 1 1
 1 1 1 1 1 1 1 1 1 1 1 1 1 1 1 1 1 1 1 1
 1 1 1 1 1 1 1 1 1 1 1 1 1 1 1 1 1 1 1 1
 1 1 1 1 1 1 1 1 1 1 1 1 1 1 1 1 1 1 1 1
 1 1 1 1 1 1 1 1 1 1 1 1 1 1 1 1 1 1 1 1
 1 1 1 1 1 1 1 1 1 1 1 1 1 1 1 1 1 1 1 1
 1 1 1 1 1 1 1 1 1 1 1 1 1 1 1 1 1 1 1 1
 1 1 1 1 1 1 1 1 1 1 1 1 1 1 1 1 1 1 1 1
 1 1 1 1 1 1 1 1 1 1 1 1 1 1 1 1 1 1 1 1
 1 1 1 1 1 1 1 1 1 1 1 1 1 1 1 1 1 1 1 1
 1 1 1 1 1 1 1 1 1 1 1 1 1 1 1 1 1 1 1 1
 1 1 1 1 1 1 1 1 1 1 1 1 1 1 1 1 3 3 3 3
 3 3 3 3 3 3 3 3 3 3 3 3 3 3 3 3 3 3 3 3
 3 3 3 3 3 3 3 3 3 3 3 3 3 3 3 3 3 3 3 3
 3 3 3 3 3 3 3 3 3 3 3 3 3 3 3 3 3 3 3 3
 3 3 3 3 3 3 3 3 3 3 3 3 3 3 3 3 3 3 3 3
 3 3 3 3 3 3 3 3 3 3 3 3 3 3 3 3 3 3 3 3
 3 3 3 3 3 3 3 3
))
(13 (0 1 307 0 0))
(0 "Interior faces of zone FLUID")
(13 (7 1 2a9 2 2)(
10f 10e 1 79
10e 124 1 8
124 10f 1 e
13e 127 2 23
127 128 2 2d
128 13e 2 50
138 144 3 5
144 142 3 b
142 138 3 11
144 137 4 5
137 126 4 f
126 144 4 10
138 137 5 29
13a 142 6 11
142 143 6 7
142 141 7 15
141 143 7 13
10e 13f 8 14
13f 124 8 d
108 141 9 12
141 13f 9 a
13f 108 9 14
140 13f a 16
141 140 a 15
144 140 b c
140 142 b 15
144 121 c 10
121 140 c 16
121 124 d 52
13f 121 d 16
124 b2 e 51
b2 10f e 43
137 13e f 17
13e 126 f 50
126 121 10 4a
13a 138 11 27
111 141 12 13
108 111 12 75
10e 108 14 6c
137 13d 17 1d
13d 13e 17 23
117 13c 18 1a
13c 136 18 20
136 117 18 26
13c 116 19 1a
116 13b 19 24
13b 13c 19 25
117 116 1a 69
119 136 1b 26
136 139 1b 1c
136 135 1c 2a
135 139 1c 28
137 133 1d 29
133 13d 1d 22
138 135 1e 27
135 133 1e 1f
133 138 1e 29
134 133 1f 2b
135 134 1f 2a
13c 134 20 21
134 136 20 2a
13c 132 21 25
132 134 21 2b
133 132 22 2b
116 47 24 58
119 117 26 67
13a 135 27 28
be 131 2c 34
c1 be 2c 39
12f 128 2d 3a
120 11f 2e 55
11f 130 2e 2f
130 120 2e 30
11f 12f 2f 3a
12f 130 2f 3b
130 12a 30 38
12a 120 30 40
12e 12a 31 36
12a 129 31 41
129 12e 31 3d
12b 130 32 38
130 12d 32 3b
12d 12b 32 3e
131 12c 33 34
12c 12d 33 3e
be 12c 34 3f
bb 129 35 3c
129 12c 35 37
12c bb 35 3f
123 12a 36 40
12b 12c 37 3e
129 12b 37 41
12b 12a 38 41
bc be 39 101
11f 128 3a 42
c0 129 3c 3d
bb c0 3c 104
be bb 3f 102
123 120 40 53
11f 126 42 4b
126 128 42 50
b2 99 43 13d
99 10f 43 8e
ac ab 44 125
ab 125 44 45
125 ac 44 46
ab 124 45 51
124 125 45 52
125 11c 46 4f
11c ac 46 56
122 11b 47 48
11b 123 47 53
122 11c 48 4d
11c 11b 48 57
11d 125 49 4f
125 121 49 52
121 11d 49 54
126 11e 4a 4b
11e 121 4a 54
11f 11e 4b 55
120 11b 4c 53
11b 11e 4c 4e
11e 120 4c 55
ae 11c 4d 56
11d 11e 4e 54
11b 11d 4e 57
11d 11c 4f 57
ab b2 51 113
ae ac 56 124
116 48 58 61
48 47 58 18c
110 4b 59 81
4b 4a 59 189
4a 110 59 5b
10a 110 5a 7d
110 11a 5a 5b
11a 10a 5a 5c
4a 11a 5b 66
11a 113 5c 65
113 10a 5c 6a
118 112 5d 5e
112 119 5d 67
118 113 5e 63
113 112 5e 6b
114 11a 5f 65
11a 49 5f 66
49 114 5f 68
49 48 60 18b
48 115 60 61
115 49 60 68
116 115 61 69
117 112 62 67
112 115 62 64
115 117 62 69
10c 113 63 6a
114 115 64 68
112 114 64 6b
114 113 65 6b
4a 49 66 18a
10c 10a 6a 7b
10e 10d 6c 6d
10d 108 6c 6e
10e 104 6d 79
104 10d 6d 7a
10d 106 6e 77
106 108 6e 75
10b 105 6f 7f
105 10c 6f 7b
10b 106 70 7e
106 107 70 77
107 10b 70 7f
107 10d 71 77
10d fb 71 7a
fb 107 71 7c
fb 102 72 90
102 109 72 73
109 fb 72 7c
110 109 73 7d
102 110 73 78
10a 105 74 7b
105 109 74 76
109 10a 74 7d
106 111 75 7e
107 109 76 7c
105 107 76 7f
102 fa 78 8f
fa 110 78 81
10f 104 79 8e
104 fb 7a 8d
99 ce 80 f8
ce 104 80 88
104 99 80 8e
fa 4b 81 a4
f6 103 82 84
103 ff 82 8b
ff f6 82 91
103 f5 83 84
f5 102 83 8f
102 103 83 90
f6 f5 84 a9
f8 ff 85 91
ff 101 85 87
cb d2 86 ee
100 cb 86 92
ff fe 87 95
fe 101 87 93
ce fc 88 94
fc 104 88 8d
cb fe 89 92
fe fc 89 8a
fc cb 89 94
fd fc 8a 96
fe fd 8a 95
103 fd 8b 8c
fd ff 8b 95
103 fb 8c 90
fb fd 8c 96
fc fb 8d 96
f5 fa 8f 97
f8 f6 91 a8
100 fe 92 93
ce cb 94 ed
f5 84 97 9e
84 fa 97 a4
ea f9 98 9a
f9 f4 98 a1
f4 ea 98 a7
f9 e9 99 9a
e9 86 99 a5
86 f9 99 a6
ea e9 9a be
ed f4 9b a7
f4 f7 9b 9d
f7 f3 9c 9d
f3 f8 9c a8
f4 f3 9d aa
f5 f1 9e a9
f1 84 9e a3
f6 f3 9f a8
f3 f1 9f a0
f1 f6 9f a9
f2 f1 a0 ab
f3 f2 a0 aa
f9 f2 a1 a2
f2 f4 a1 aa
f9 85 a2 a6
85 f2 a2 ab
85 84 a3 153
f1 85 a3 ab
84 4b a4 154
e9 87 a5 ac
87 86 a5 151
86 85 a6 152
ed ea a7 bc
e9 f0 ac b5
d1 d0 ad c2
ee d1 ad ba
c8 c7 ae fc
c7 ef ae af
ef c8 ae b0
c7 ee af ba
ee ef af bb
ef e6 b0 b9
e6 c8 b0 bf
ec e5 b1 b2
e5 ed b1 bc
ec e6 b2 b7
e6 e5 b2 c0
e7 ef b3 b9
ef eb b3 bb
eb e7 b3 bd
f0 e8 b4 b5
e8 eb b4 bd
e9 e8 b5 be
ea e5 b6 bc
e5 e8 b6 b8
e8 ea b6 be
ca e6 b7 bf
e7 e8 b8 bd
e5 e7 b8 c0
e7 e6 b9 c0
c7 d1 ba ea
ca c8 bf fb
95 94 c1 14a
94 cc c1 c9
cc 95 c1 ce
d8 d0 c2 e2
d1 d8 c2 f7
d9 d8 c3 e7
d8 e4 c3 c4
e4 d9 c3 c5
d8 cf c4 f7
cf e4 c4 cf
e4 e0 c5 cd
e0 d9 c5 d4
e3 e0 c6 cb
e0 df c6 d5
df e3 c6 d1
e1 e4 c7 cd
e4 c2 c7 cf
c2 e1 c7 d2
c2 cc c8 f9
cc e2 c8 c9
e2 c2 c8 d2
94 e2 c9 d3
8b df ca d0
df e2 ca cc
e2 8b ca d3
db e0 cb d4
e1 e2 cc d2
df e1 cc d5
e1 e0 cd d5
cc 99 ce f8
99 95 ce 13d
cf c2 cf f6
98 df d0 d1
8b 98 d0 147
94 8b d3 13e
db d9 d4 e6
9f dd d6 d8
dd d7 d6 df
d7 9f d6 e5
dd 9e d7 d8
9e dc d7 e3
dc dd d7 e4
9f 9e d8 139
a2 d7 d9 e5
d7 da d9 db
da d6 da db
d6 db da e6
d7 d6 db e8
de d8 dc e2
d8 d4 dc e7
d4 de dc e1
d9 d6 dd e6
d6 d4 dd de
d4 d9 dd e7
d5 d4 de e9
d6 d5 de e8
dd d5 df e0
d5 d7 df e8
dd d3 e0 e4
d3 d5 e0 e9
d4 d3 e1 e9
9e a6 e3 128
a2 9f e5 137
c7 cf ea f1
cf d1 ea f7
cb cd eb ed
cd c6 eb f4
c6 cb eb ee
cd ce ec ed
ce cc ec f8
cc cd ec f9
c6 d2 ee fa
c9 c5 ef f0
c5 ca ef fb
c9 c6 f0 fa
c6 c5 f0 fd
c7 c3 f1 fc
c3 cf f1 f6
c8 c5 f2 fb
c5 c3 f2 f3
c3 c8 f2 fc
c4 c3 f3 fe
c5 c4 f3 fd
cd c4 f4 f5
c4 c6 f4 fd
cd c2 f5 f9
c2 c4 f5 fe
c3 c2 f6 fe
97 b1 ff 121
b1 bf ff 107
bb bd 100 102
bd b8 100 10a
b8 bb 100 104
bd be 101 102
bc bd 101 10d
c0 b8 103 104
b8 ba 103 106
af b3 105 117
b9 af 105 10e
b8 b7 106 111
b7 ba 106 10f
b1 b5 107 110
b5 bf 107 10c
af b7 108 10e
b7 b5 108 109
b5 af 108 110
b6 b5 109 112
b7 b6 109 111
bd b6 10a 10b
b6 b8 10a 111
bd b4 10b 10d
b4 b6 10b 112
b5 b4 10c 112
b9 b7 10e 10f
b1 af 110 116
ab 92 113 11a
92 b2 113 120
af b0 114 116
b0 aa 114 11d
aa af 114 117
b0 b1 115 116
b1 96 115 121
96 b0 115 122
aa b3 117 123
ad a9 118 119
a9 ae 118 124
ad aa 119 123
aa a9 119 126
ab a7 11a 125
a7 92 11a 11f
ac a9 11b 124
a9 a7 11b 11c
a7 ac 11b 125
a8 a7 11c 127
a9 a8 11c 126
b0 a8 11d 11e
a8 aa 11d 126
b0 8f 11e 122
8f a8 11e 127
8f 92 11f 14b
a7 8f 11f 127
92 95 120 14a
95 b2 120 13d
97 96 121 13c
96 8f 122 144
9e a5 128 130
8e 8d 129 14e
8d a4 129 12a
a4 8e 129 12b
8d a3 12a 135
a3 a4 12a 136
a4 9b 12b 134
9b 8e 12b 13a
a1 9a 12c 12d
9a a2 12c 137
a1 9b 12d 132
9b 9a 12d 13b
9c a4 12e 134
a4 a0 12e 136
a0 9c 12e 138
a5 9d 12f 130
9d a0 12f 138
9e 9d 130 139
9f 9a 131 137
9a 9d 131 133
9d 9f 131 139
91 9b 132 13a
9c 9d 133 138
9a 9c 133 13b
9c 9b 134 13b
8d 97 135 13c
91 8e 13a 14c
8d 96 13c 145
94 93 13e 13f
93 8b 13e 140
94 92 13f 14a
92 93 13f 14b
93 89 140 149
89 8b 140 147
90 88 141 142
88 91 141 14c
90 89 142 14f
89 88 142 150
8a 93 143 149
93 8f 143 14b
8f 8a 143 14d
96 8c 144 145
8c 8f 144 14d
8d 8c 145 14e
8e 88 146 14c
88 8c 146 148
8c 8e 146 14e
89 98 147 14f
8a 8c 148 14d
88 8a 148 150
8a 89 149 150
82 86 151 152
83 82 151 155
81 85 152 153
82 81 152 156
80 84 153 154
81 80 153 157
46 4b 154 189
80 46 154 158
7e 82 155 156
7f 7e 155 159
7d 81 156 157
7e 7d 156 15a
7c 80 157 158
7d 7c 157 15b
41 46 158 18d
7c 41 158 15c
7a 7e 159 15a
7b 7a 159 15d
79 7d 15a 15b
7a 79 15a 15e
78 7c 15b 15c
79 78 15b 15f
3c 41 15c 191
78 3c 15c 160
76 7a 15d 15e
77 76 15d 161
75 79 15e 15f
76 75 15e 162
74 78 15f 160
75 74 15f 163
37 3c 160 195
74 37 160 164
72 76 161 162
73 72 161 165
71 75 162 163
72 71 162 166
70 74 163 164
71 70 163 167
32 37 164 199
70 32 164 168
6e 72 165 166
6f 6e 165 169
6d 71 166 167
6e 6d 166 16a
6c 70 167 168
6d 6c 167 16b
2d 32 168 19d
6c 2d 168 16c
6a 6e 169 16a
6b 6a 169 16d
69 6d 16a 16b
6a 69 16a 16e
68 6c 16b 16c
69 68 16b 16f
28 2d 16c 1a1
68 28 16c 170
66 6a 16d 16e
67 66 16d 171
65 69 16e 16f
66 65 16e 172
64 68 16f 170
65 64 16f 173
23 28 170 1a5
64 23 170 174
62 66 171 172
63 62 171 175
61 65 172 173
62 61 172 176
60 64 173 174
61 60 173 177
1e 23 174 1a9
60 1e 174 178
5e 62 175 176
5f 5e 175 179
5d 61 176 177
5e 5d 176 17a
5c 60 177 178
5d 5c 177 17b
19 1e 178 1ad
5c 19 178 17c
5a 5e 179 17a
5b 5a 179 17d
59 5d 17a 17b
5a 59 17a 17e
58 5c 17b 17c
59 58 17b 17f
14 19 17c 1b1
58 14 17c 180
56 5a 17d 17e
57 56 17d 181
55 59 17e 17f
56 55 17e 182
54 58 17f 180
55 54 17f 183
f 14 180 1b5
54 f 180 184
51 56 181 182
53 51 181 185
4f 55 182 183
51 4f 182 186
4d 54 183 184
4f 4d 183 187
a f 184 1b9
4d a 184 188
50 51 185 186
4e 4f 186 187
4c 4d 187 188
9 a 188 1bd
45 4a 189 18a
46 45 189 18d
44 49 18a 18b
45 44 18a 18e
43 48 18b 18c
44 43 18b 18f
43 42 18c 190
40 45 18d 18e
41 40 18d 191
3f 44 18e 18f
40 3f 18e 192
3e 43 18f 190
3f 3e 18f 193
3e 3d 190 194
3b 40 191 192
3c 3b 191 195
3a 3f 192 193
3b 3a 192 196
39 3e 193 194
3a 39 193 197
39 38 194 198
36 3b 195 196
37 36 195 199
35 3a 196 197
36 35 196 19a
34 39 197 198
35 34 197 19b
34 33 198 19c
31 36 199 19a
32 31 199 19d
30 35 19a 19b
31 30 19a 19e
2f 34 19b 19c
30 2f 19b 19f
2f 2e 19c 1a0
2c 31 19d 19e
2d 2c 19d 1a1
2b 30 19e 19f
2c 2b 19e 1a2
2a 2f 19f 1a0
2b 2a 19f 1a3
2a 29 1a0 1a4
27 2c 1a1 1a2
28 27 1a1 1a5
26 2b 1a2 1a3
27 26 1a2 1a6
25 2a 1a3 1a4
26 25 1a3 1a7
25 24 1a4 1a8
22 27 1a5 1a6
23 22 1a5 1a9
21 26 1a6 1a7
22 21 1a6 1aa
20 25 1a7 1a8
21 20 1a7 1ab
20 1f 1a8 1ac
1d 22 1a9 1aa
1e 1d 1a9 1ad
1c 21 1aa 1ab
1d 1c 1aa 1ae
1b 20 1ab 1ac
1c 1b 1ab 1af
1b 1a 1ac 1b0
18 1d 1ad 1ae
19 18 1ad 1b1
17 1c 1ae 1af
18 17 1ae 1b2
16 1b 1af 1b0
17 16 1af 1b3
16 15 1b0 1b4
13 18 1b1 1b2
14 13 1b1 1b5
12 17 1b2 1b3
13 12 1b2 1b6
11 16 1b3 1b4
12 11 1b3 1b7
11 10 1b4 1b8
e 13 1b5 1b6
f e 1b5 1b9
d 12 1b6 1b7
e d 1b6 1ba
c 11 1b7 1b8
d c 1b7 1bb
c b 1b8 1bc
8 e 1b9 1ba
a 8 1b9 1bd
6 d 1ba 1bb
8 6 1ba 1be
4 c 1bb 1bc
6 4 1bb 1bf
4 2 1bc 1c0
7 8 1bd 1be
5 6 1be 1bf
3 4 1bf 1c0
)
)
(0 "Faces of zone COLD")
(13 (8 2aa 2e5 3 2)(
a5 a6 128 0
a0 a5 12f 0
a3 a0 136 0
97 a3 135 0
bf 97 ff 0
b4 bf 10c 0
bc b4 10d 0
c1 bc 39 0
a6 dc e3 0
dc d3 e4 0
d3 de e1 0
de d0 e2 0
d0 ee ad 0
ee eb bb 0
eb f0 b4 0
f0 87 ac 0
13d 127 23 0
132 13d 22 0
13b 132 25 0
47 13b 24 0
87 83 151 0
83 7f 155 0
7f 7b 159 0
7b 77 15d 0
77 73 161 0
73 6f 165 0
6f 6b 169 0
6b 67 16d 0
67 63 171 0
63 5f 175 0
5f 5b 179 0
5b 57 17d 0
57 53 181 0
53 52 185 0
52 50 185 0
50 4e 186 0
4e 4c 187 0
4c 9 188 0
9 7 1bd 0
7 5 1be 0
5 3 1bf 0
3 1 1c0 0
42 47 18c 0
3d 42 190 0
38 3d 194 0
33 38 198 0
2e 33 19c 0
29 2e 1a0 0
24 29 1a4 0
1f 24 1a8 0
1a 1f 1ac 0
15 1a 1b0 0
10 15 1b4 0
b 10 1b8 0
2 b 1bc 0
1 2 1c0 0
131 c1 2c 0
12d 131 33 0
12f 12d 3b 0
127 12f 2d 0
)
)
(0 "Faces of zone HOT")
(13 (9 2e6 307 3 2)(
da a2 d9 0
db da da 0
ad b3 123 0
ae ad 118 0
a2 a1 12c 0
a1 91 132 0
91 90 141 0
90 98 14f 0
e3 db cb 0
98 e3 d1 0
122 ae 4d 0
123 122 47 0
c0 12e 3d 0
12e 123 36 0
b3 b9 105 0
b9 ba 10f 0
ba c0 103 0
ca c9 ef 0
c9 d2 fa 0
ec ca b7 0
ed ec b1 0
13a 139 28 0
139 119 1b 0
118 10c 63 0
119 118 5d 0
10b 111 7e 0
10c 10b 6f 0
d2 100 86 0
100 101 93 0
101 f8 85 0
f7 ed 9b 0
f8 f7 9c 0
111 143 13 0
143 13a 6 0
)
)
(0 "Zone Sections")
(39 (6 fluid FLUID)())
(39 (7 interior int_FLUID)())
(39 (8 wall COLD)())
(39 (9 wall HOT)())
